src/build/module_teclado_tb.vcd
$date
	Wed Jun 11 14:44:32 2025
$end
$version
	Icarus Verilog
$end
$timescale
	1ns
$end
$scope module module_teclado_tb $end
$var wire 1 ! tecla $end
$var wire 4 " col [3:0] $end
$var reg 1 # clk $end
$var reg 4 $ fila [3:0] $end
$var reg 1 % rst $end
$scope module dut $end
$var wire 1 # clk $end
$var wire 4 & fila [3:0] $end
$var wire 1 % rst $end
$var wire 1 ! tecla $end
$var wire 1 ' stop $end
$var wire 4 ( out [3:0] $end
$var wire 2 ) count [1:0] $end
$var wire 4 * col [3:0] $end
$scope module debouncer $end
$var wire 1 + btn $end
$var wire 1 # clk $end
$var wire 1 , n3 $end
$var wire 1 % rst $end
$var wire 1 ' stop $end
$var wire 1 ! tecla $end
$var wire 1 - n4 $end
$var wire 1 . n2 $end
$var wire 1 / n1 $end
$scope module cont $end
$var wire 1 # clk $end
$var wire 1 , in $end
$var wire 1 % rst $end
$var reg 5 0 count [4:0] $end
$var reg 1 - flg $end
$upscope $end
$scope module dff1 $end
$var wire 1 # clk $end
$var wire 1 + d $end
$var wire 1 % rst $end
$var reg 1 / q $end
$upscope $end
$scope module dff2 $end
$var wire 1 # clk $end
$var wire 1 / d $end
$var wire 1 % rst $end
$var reg 1 . q $end
$upscope $end
$upscope $end
$scope module deco $end
$var wire 2 1 in [1:0] $end
$var reg 4 2 out [3:0] $end
$upscope $end
$scope module deco_teclado $end
$var wire 4 3 col [3:0] $end
$var wire 4 4 fila [3:0] $end
$var wire 8 5 d [7:0] $end
$var reg 4 6 num [3:0] $end
$upscope $end
$scope module twobitcounter $end
$var wire 1 # clk $end
$var wire 2 7 count_o [1:0] $end
$var wire 1 % rst $end
$var wire 1 ' stop $end
$var reg 2 8 count [1:0] $end
$upscope $end
$upscope $end
$upscope $end
$enddefinitions $end
$comment Show the parameter values. $end
$dumpall
$end
#0
$dumpvars
bx 8
bx 7
b0 6
bx0000 5
bx 4
b0 3
b0 2
bx 1
bx 0
x/
x.
x-
x,
x+
b0 *
bx )
b0 (
x'
bx &
0%
bx $
0#
b0 "
x!
$end
#1
1,
bx0001 5
b1 (
b1 2
b1 3
0'
0!
b0 )
b0 1
b0 7
b0 8
0/
0.
0-
b0 0
1#
#2
0#
#3
1#
#4
0#
#5
x,
bx0010 5
b10 (
b10 2
b10 3
b1 )
b1 1
b1 7
b1 8
x/
b1 0
1#
1%
#6
0#
#7
bx0100 5
b100 (
b100 2
b100 3
b0 0
x.
b10 )
b10 1
b10 7
b10 8
1#
#8
0#
#9
bx1000 5
b1000 (
b1000 2
b1000 3
b11 )
b11 1
b11 7
b11 8
1#
#10
0#
1+
b11000 5
b1 $
b1 &
b1 4
#11
b1 "
b1 *
b1 6
b10001 5
b1 (
b1 2
b1 3
1/
b0 )
b0 1
b0 7
b0 8
1#
#12
0#
#13
b10 "
b10 *
b10 6
1,
b10010 5
b10 (
b10 2
b10 3
b1 )
b1 1
b1 7
b1 8
1.
1#
#14
0#
#15
b11 "
b11 *
b11 6
b10100 5
b100 (
b100 2
b100 3
b1 0
b10 )
b10 1
b10 7
b10 8
1#
#16
0#
#17
b0 "
b0 *
b0 6
b11000 5
b1000 (
b1000 2
b1000 3
b11 )
b11 1
b11 7
b11 8
b10 0
1#
#18
0#
#19
b1 "
b1 *
b1 6
b10001 5
b1 (
b1 2
b1 3
b11 0
b0 )
b0 1
b0 7
b0 8
1#
#20
0#
#21
b10 "
b10 *
b10 6
b10010 5
b10 (
b10 2
b10 3
b1 )
b1 1
b1 7
b1 8
b100 0
1#
#22
0#
#23
b11 "
b11 *
b11 6
b10100 5
b100 (
b100 2
b100 3
b101 0
b10 )
b10 1
b10 7
b10 8
1#
#24
0#
#25
b0 "
b0 *
b0 6
b11000 5
b1000 (
b1000 2
b1000 3
b11 )
b11 1
b11 7
b11 8
b110 0
1#
#26
0#
#27
b1 "
b1 *
b1 6
b10001 5
b1 (
b1 2
b1 3
b111 0
b0 )
b0 1
b0 7
b0 8
1#
#28
0#
#29
b10 "
b10 *
b10 6
b10010 5
b10 (
b10 2
b10 3
b1 )
b1 1
b1 7
b1 8
b1000 0
1#
#30
b101 "
b101 *
b101 6
0#
b100010 5
b10 $
b10 &
b10 4
#31
b110 "
b110 *
b110 6
b100100 5
b100 (
b100 2
b100 3
b1001 0
b10 )
b10 1
b10 7
b10 8
1#
#32
0#
#33
b0 "
b0 *
b0 6
b101000 5
b1000 (
b1000 2
b1000 3
b11 )
b11 1
b11 7
b11 8
b1010 0
1#
#34
0#
#35
b100 "
b100 *
b100 6
b100001 5
b1 (
b1 2
b1 3
b1011 0
b0 )
b0 1
b0 7
b0 8
1#
#36
0#
#37
b101 "
b101 *
b101 6
b100010 5
b10 (
b10 2
b10 3
b1 )
b1 1
b1 7
b1 8
b1100 0
1#
#38
0#
#39
b110 "
b110 *
b110 6
b100100 5
b100 (
b100 2
b100 3
b1101 0
b10 )
b10 1
b10 7
b10 8
1#
#40
0#
#41
b0 "
b0 *
b0 6
b101000 5
b1000 (
b1000 2
b1000 3
b11 )
b11 1
b11 7
b11 8
b1110 0
1#
#42
0#
#43
b100 "
b100 *
b100 6
b100001 5
b1 (
b1 2
b1 3
b1111 0
b0 )
b0 1
b0 7
b0 8
1#
#44
0#
#45
b101 "
b101 *
b101 6
b100010 5
b10 (
b10 2
b10 3
b1 )
b1 1
b1 7
b1 8
b10000 0
1#
#46
0#
#47
b110 "
b110 *
b110 6
b100100 5
b100 (
b100 2
b100 3
b10001 0
b10 )
b10 1
b10 7
b10 8
1#
#48
0#
#49
b0 "
b0 *
b0 6
b101000 5
b1000 (
b1000 2
b1000 3
b11 )
b11 1
b11 7
b11 8
b10010 0
1#
#50
0#
b1001000 5
b100 $
b100 &
b100 4
#51
b111 "
b111 *
b111 6
b1000001 5
b1 (
b1 2
b1 3
b10011 0
b0 )
b0 1
b0 7
b0 8
1#
#52
0#
#53
b1000 "
b1000 *
b1000 6
b1000010 5
b10 (
b10 2
b10 3
b1 )
b1 1
b1 7
b1 8
b10100 0
1#
#54
0#
#55
b1001 "
b1001 *
b1001 6
b1000100 5
b100 (
b100 2
b100 3
b10101 0
b10 )
b10 1
b10 7
b10 8
1#
#56
0#
#57
b0 "
b0 *
b0 6
b1001000 5
b1000 (
b1000 2
b1000 3
b11 )
b11 1
b11 7
b11 8
b10110 0
1#
#58
0#
#59
b111 "
b111 *
b111 6
b1000001 5
b1 (
b1 2
b1 3
b10111 0
b0 )
b0 1
b0 7
b0 8
1#
#60
0#
#61
b1000 "
b1000 *
b1000 6
b1000010 5
b10 (
b10 2
b10 3
b1 )
b1 1
b1 7
b1 8
b11000 0
1#
#62
0#
#63
b1001 "
b1001 *
b1001 6
b1000100 5
b100 (
b100 2
b100 3
b11001 0
b10 )
b10 1
b10 7
b10 8
1#
#64
0#
#65
b0 "
b0 *
b0 6
b1001000 5
b1000 (
b1000 2
b1000 3
1'
1!
b11 )
b11 1
b11 7
b11 8
1-
b0 0
1#
#66
0#
#67
0'
0!
0-
b1 0
1#
#68
0#
#69
b111 "
b111 *
b111 6
b1000001 5
b1 (
b1 2
b1 3
b0 )
b0 1
b0 7
b0 8
b10 0
1#
#70
b1110 "
b1110 *
b1110 6
0#
b10000001 5
b1000 $
b1000 &
b1000 4
#71
b0 "
b0 *
b0 6
b10000010 5
b10 (
b10 2
b10 3
b11 0
b1 )
b1 1
b1 7
b1 8
1#
#72
0#
#73
b1111 "
b1111 *
b1111 6
b10000100 5
b100 (
b100 2
b100 3
b10 )
b10 1
b10 7
b10 8
b100 0
1#
#74
0#
#75
b1101 "
b1101 *
b1101 6
b10001000 5
b1000 (
b1000 2
b1000 3
b101 0
b11 )
b11 1
b11 7
b11 8
1#
#76
0#
#77
b1110 "
b1110 *
b1110 6
b10000001 5
b1 (
b1 2
b1 3
b0 )
b0 1
b0 7
b0 8
b110 0
1#
#78
0#
#79
b0 "
b0 *
b0 6
b10000010 5
b10 (
b10 2
b10 3
b111 0
b1 )
b1 1
b1 7
b1 8
1#
#80
0#
#81
b1111 "
b1111 *
b1111 6
b10000100 5
b100 (
b100 2
b100 3
b10 )
b10 1
b10 7
b10 8
b1000 0
1#
#82
0#
#83
b1101 "
b1101 *
b1101 6
b10001000 5
b1000 (
b1000 2
b1000 3
b1001 0
b11 )
b11 1
b11 7
b11 8
1#
#84
0#
#85
b1110 "
b1110 *
b1110 6
b10000001 5
b1 (
b1 2
b1 3
b0 )
b0 1
b0 7
b0 8
b1010 0
1#
#86
0#
#87
b0 "
b0 *
b0 6
b10000010 5
b10 (
b10 2
b10 3
b1011 0
b1 )
b1 1
b1 7
b1 8
1#
#88
0#
#89
b1111 "
b1111 *
b1111 6
b10000100 5
b100 (
b100 2
b100 3
b10 )
b10 1
b10 7
b10 8
b1100 0
1#
#90
0#
#91
b1101 "
b1101 *
b1101 6
b10001000 5
b1000 (
b1000 2
b1000 3
b1101 0
b11 )
b11 1
b11 7
b11 8
1#
#92
0#
#93
b1110 "
b1110 *
b1110 6
b10000001 5
b1 (
b1 2
b1 3
b0 )
b0 1
b0 7
b0 8
b1110 0
1#
#94
0#
#95
b0 "
b0 *
b0 6
b10000010 5
b10 (
b10 2
b10 3
b1111 0
b1 )
b1 1
b1 7
b1 8
1#
#96
0#
#97
b1111 "
b1111 *
b1111 6
b10000100 5
b100 (
b100 2
b100 3
b10 )
b10 1
b10 7
b10 8
b10000 0
1#
#98
0#
#99
b1101 "
b1101 *
b1101 6
b10001000 5
b1000 (
b1000 2
b1000 3
b10001 0
b11 )
b11 1
b11 7
b11 8
1#
#100
0#
#101
b1110 "
b1110 *
b1110 6
b10000001 5
b1 (
b1 2
b1 3
b0 )
b0 1
b0 7
b0 8
b10010 0
1#
#102
0#
#103
b0 "
b0 *
b0 6
b10000010 5
b10 (
b10 2
b10 3
b10011 0
b1 )
b1 1
b1 7
b1 8
1#
#104
0#
#105
b1111 "
b1111 *
b1111 6
b10000100 5
b100 (
b100 2
b100 3
b10 )
b10 1
b10 7
b10 8
b10100 0
1#
#106
0#
#107
b1101 "
b1101 *
b1101 6
b10001000 5
b1000 (
b1000 2
b1000 3
b10101 0
b11 )
b11 1
b11 7
b11 8
1#
#108
0#
#109
b1110 "
b1110 *
b1110 6
b10000001 5
b1 (
b1 2
b1 3
b0 )
b0 1
b0 7
b0 8
b10110 0
1#
#110
0#
#111
b0 "
b0 *
b0 6
b10000010 5
b10 (
b10 2
b10 3
b10111 0
b1 )
b1 1
b1 7
b1 8
1#
#112
0#
#113
b1111 "
b1111 *
b1111 6
b10000100 5
b100 (
b100 2
b100 3
b10 )
b10 1
b10 7
b10 8
b11000 0
1#
#114
0#
#115
b1101 "
b1101 *
b1101 6
b10001000 5
b1000 (
b1000 2
b1000 3
b11001 0
b11 )
b11 1
b11 7
b11 8
1#
#116
0#
#117
b1110 "
b1110 *
b1110 6
b10000001 5
b1 (
b1 2
b1 3
1'
1!
b0 )
b0 1
b0 7
b0 8
1-
b0 0
1#
#118
0#
#119
0'
0!
0-
b1 0
1#
#120
0#
#121
b0 "
b0 *
b0 6
b10000010 5
b10 (
b10 2
b10 3
b1 )
b1 1
b1 7
b1 8
b10 0
1#
#122
0#
#123
b1111 "
b1111 *
b1111 6
b10000100 5
b100 (
b100 2
b100 3
b11 0
b10 )
b10 1
b10 7
b10 8
1#
#124
0#
#125
b1101 "
b1101 *
b1101 6
b10001000 5
b1000 (
b1000 2
b1000 3
b11 )
b11 1
b11 7
b11 8
b100 0
1#
#126
0#
#127
b1110 "
b1110 *
b1110 6
b10000001 5
b1 (
b1 2
b1 3
b101 0
b0 )
b0 1
b0 7
b0 8
1#
#128
0#
#129
b0 "
b0 *
b0 6
b10000010 5
b10 (
b10 2
b10 3
b1 )
b1 1
b1 7
b1 8
b110 0
1#
#130
0#
#131
b1111 "
b1111 *
b1111 6
b10000100 5
b100 (
b100 2
b100 3
b111 0
b10 )
b10 1
b10 7
b10 8
1#
#132
0#
#133
b1101 "
b1101 *
b1101 6
b10001000 5
b1000 (
b1000 2
b1000 3
b11 )
b11 1
b11 7
b11 8
b1000 0
1#
#134
0#
#135
b1110 "
b1110 *
b1110 6
b10000001 5
b1 (
b1 2
b1 3
b1001 0
b0 )
b0 1
b0 7
b0 8
1#
#136
0#
#137
b0 "
b0 *
b0 6
b10000010 5
b10 (
b10 2
b10 3
b1 )
b1 1
b1 7
b1 8
b1010 0
1#
#138
0#
#139
b1111 "
b1111 *
b1111 6
b10000100 5
b100 (
b100 2
b100 3
b1011 0
b10 )
b10 1
b10 7
b10 8
1#
