src/build/module_top_tb.vcd
$date
	Tue Jul 01 20:44:15 2025
$end
$version
	Icarus Verilog
$end
$timescale
	1ns
$end
$scope module module_top_tb $end
$var wire 8 ! m [7:0] $end
$var reg 1 " clk $end
$var reg 4 # fila [3:0] $end
$var reg 1 $ rst $end
$scope module dut $end
$var wire 1 " clk $end
$var wire 4 % fila [3:0] $end
$var wire 1 $ rst $end
$var wire 1 & rdy $end
$var wire 7 ' m [6:0] $end
$var wire 1 ( load_b $end
$var wire 1 ) load_a $end
$var wire 4 * b [3:0] $end
$var wire 4 + a [3:0] $end
$scope module multiplicador $end
$var wire 1 " clk $end
$var wire 1 $ rst $end
$var wire 1 , z $end
$var wire 1 - step $end
$var wire 8 . p [7:0] $end
$var wire 5 / mult_control [4:0] $end
$var wire 1 & init $end
$var wire 1 0 done $end
$var wire 4 1 b [3:0] $end
$var wire 4 2 a [3:0] $end
$var wire 2 3 Q_LSB [1:0] $end
$var parameter 32 4 N $end
$scope module decremental $end
$var wire 1 " clk $end
$var wire 1 $ rst $end
$var wire 1 , z $end
$var wire 1 - step $end
$var parameter 32 5 N $end
$var parameter 32 6 width_counter $end
$var reg 3 7 counter [2:0] $end
$var reg 1 8 z_flag $end
$upscope $end
$scope module fsmbooth $end
$var wire 1 " clk $end
$var wire 1 $ rst $end
$var wire 1 , z $end
$var wire 1 & init $end
$var wire 2 9 Q_LSB [1:0] $end
$var parameter 7 : IDLE $end
$var parameter 7 ; S0 $end
$var parameter 7 < S1 $end
$var parameter 7 = S2 $end
$var parameter 7 > S3 $end
$var parameter 7 ? S4 $end
$var parameter 7 @ S5 $end
$var reg 5 A control [4:0] $end
$var reg 1 0 done $end
$var reg 7 B nextstate [6:0] $end
$var reg 7 C state [6:0] $end
$var reg 1 - step $end
$upscope $end
$scope module multiplicador $end
$var wire 1 " clk $end
$var wire 5 D mult_control [4:0] $end
$var wire 1 $ rst $end
$var wire 4 E B [3:0] $end
$var wire 4 F A [3:0] $end
$var parameter 32 G N $end
$var reg 4 H HQ [3:0] $end
$var reg 4 I LQ [3:0] $end
$var reg 4 J M [3:0] $end
$var reg 1 K Q_1 $end
$var reg 2 L Q_LSB [1:0] $end
$var reg 8 M Y [7:0] $end
$var reg 4 N adder_sub_out [3:0] $end
$var reg 9 O shift [8:0] $end
$upscope $end
$upscope $end
$scope module teclado $end
$var wire 1 " clk $end
$var wire 4 P fila [3:0] $end
$var wire 1 $ rst $end
$var wire 1 Q tecla $end
$var wire 1 R stop $end
$var wire 1 & rdy $end
$var wire 4 S out [3:0] $end
$var wire 1 ( load_b $end
$var wire 1 ) load_a $end
$var wire 2 T count [1:0] $end
$var wire 4 U col [3:0] $end
$var wire 4 V b [3:0] $end
$var wire 4 W a [3:0] $end
$scope module debouncer $end
$var wire 1 X btn $end
$var wire 1 " clk $end
$var wire 1 Y n3 $end
$var wire 1 $ rst $end
$var wire 1 R stop $end
$var wire 1 Q tecla $end
$var wire 1 Z n4 $end
$var wire 1 [ n2 $end
$var wire 1 \ n1 $end
$scope module cont $end
$var wire 1 " clk $end
$var wire 1 Y in $end
$var wire 1 $ rst $end
$var reg 3 ] count [2:0] $end
$var reg 1 Z flg $end
$upscope $end
$scope module dff1 $end
$var wire 1 " clk $end
$var wire 1 X d $end
$var wire 1 $ rst $end
$var reg 1 \ q $end
$upscope $end
$scope module dff2 $end
$var wire 1 " clk $end
$var wire 1 \ d $end
$var wire 1 $ rst $end
$var reg 1 [ q $end
$upscope $end
$upscope $end
$scope module deco $end
$var wire 2 ^ in [1:0] $end
$var reg 4 _ out [3:0] $end
$upscope $end
$scope module deco_teclado $end
$var wire 4 ` col [3:0] $end
$var wire 4 a fila [3:0] $end
$var wire 8 b d [7:0] $end
$var reg 4 c num [3:0] $end
$upscope $end
$scope module fsmop $end
$var wire 1 " clk $end
$var wire 1 $ rst $end
$var wire 1 Q tecla $end
$var wire 1 & load_m $end
$var wire 1 ( load_b $end
$var wire 1 ) load_a $end
$var parameter 4 d S0 $end
$var parameter 4 e S1 $end
$var parameter 4 f S2 $end
$var parameter 4 g S3 $end
$var reg 4 h nextstate [3:0] $end
$var reg 4 i state [3:0] $end
$upscope $end
$scope module shift_reg_op $end
$var wire 1 " clk $end
$var wire 1 ) load_a $end
$var wire 1 ( load_b $end
$var wire 4 j num [3:0] $end
$var wire 1 $ rst $end
$var reg 4 k a [3:0] $end
$var reg 4 l b [3:0] $end
$upscope $end
$scope module twobitcounter $end
$var wire 1 " clk $end
$var wire 2 m count_o [1:0] $end
$var wire 1 $ rst $end
$var wire 1 R stop $end
$var reg 2 n count [1:0] $end
$upscope $end
$upscope $end
$upscope $end
$upscope $end
$enddefinitions $end
$comment Show the parameter values. $end
$dumpall
b1000 g
b100 f
b10 e
b1 d
b100 G
b1000000 @
b100000 ?
b10000 >
b1000 =
b100 <
b10 ;
b1 :
b10 6
b100 5
b100 4
$end
#0
$dumpvars
bx n
bx m
bx l
bx k
b0 j
bx i
b1 h
b0 c
b0 b
b0 a
b0 `
b0 _
bx ^
bx ]
x\
x[
xZ
xY
0X
bx W
bx V
b0 U
bx T
b0 S
xR
xQ
b0 P
bx O
bx N
bx M
bx L
xK
bx J
bx I
bx H
bx F
bx E
b0x D
bx C
b1 B
b0x A
bx 9
08
b100 7
bx 3
bx 2
bx 1
00
b0x /
bx .
0-
0,
bx +
bx *
x)
x(
bx '
x&
b0 %
1$
b0 #
0"
b0xxxxxxx !
$end
#1
1Y
b1 b
b1 S
b1 _
b1 `
0R
0Q
b0 N
b0 3
b0 9
b0 L
0K
b0 I
b0 H
b0 T
b0 ^
b0 m
b0 n
0\
0[
0Z
b0 ]
0)
0(
0&
b1 i
b0 *
b0 1
b0 E
b0 V
b0 l
b0 +
b0 2
b0 F
b0 W
b0 k
b1 C
b0 J
b0 O
1"
#2
0"
#3
1"
#4
0"
#5
1"
#6
0"
#7
1"
#8
0"
#9
1"
#10
0"
#11
1"
#12
0"
#13
1"
#14
0"
#15
1"
#16
0"
#17
1"
#18
0"
#19
1"
#20
0"
0$
#21
b10 b
b10 S
b10 _
b10 `
b1 T
b1 ^
b1 m
b1 n
b1 ]
1"
#22
0"
#23
b100 b
b100 S
b100 _
b100 `
b10 ]
b10 T
b10 ^
b10 m
b10 n
1"
#24
0"
#25
b1000 b
b1000 S
b1000 _
b1000 `
b11 T
b11 ^
b11 m
b11 n
b11 ]
1"
#26
0"
#27
b1 b
b1 S
b1 _
b1 `
b100 ]
b0 T
b0 ^
b0 m
b0 n
1"
#28
0"
#29
b10 b
b10 S
b10 _
b10 `
b1 T
b1 ^
b1 m
b1 n
b101 ]
1"
#30
0"
#31
b100 b
b100 S
b100 _
b100 `
b110 ]
b10 T
b10 ^
b10 m
b10 n
1"
#32
0"
#33
b1000 b
b1000 S
b1000 _
b1000 `
b11 T
b11 ^
b11 m
b11 n
b111 ]
1"
#34
0"
#35
b1 b
b1 S
b1 _
b1 `
1Z
b0 T
b0 ^
b0 m
b0 n
1"
#36
0"
#37
b10 b
b10 S
b10 _
b10 `
b1 T
b1 ^
b1 m
b1 n
1"
#38
0"
#39
b100 b
b100 S
b100 _
b100 `
b10 T
b10 ^
b10 m
b10 n
1"
#40
b11 U
b11 c
b11 j
0"
1X
b10100 b
b1 #
b1 %
b1 P
b1 a
#41
b0 U
b0 c
b0 j
0Y
b11000 b
b1000 S
b1000 _
b1000 `
b11 T
b11 ^
b11 m
b11 n
1\
1"
#42
0"
#43
1Y
b1 U
b1 c
b1 j
b10001 b
b1 S
b1 _
b1 `
0Z
b0 ]
1[
b0 T
b0 ^
b0 m
b0 n
1"
#44
0"
#45
b10 U
b10 c
b10 j
b10010 b
b10 S
b10 _
b10 `
b1 T
b1 ^
b1 m
b1 n
b1 ]
1"
#46
0"
#47
b11 U
b11 c
b11 j
b10100 b
b100 S
b100 _
b100 `
b10 ]
b10 T
b10 ^
b10 m
b10 n
1"
#48
0"
#49
b0 U
b0 c
b0 j
b11000 b
b1000 S
b1000 _
b1000 `
b11 T
b11 ^
b11 m
b11 n
b11 ]
1"
#50
0"
#51
b1 U
b1 c
b1 j
b10001 b
b1 S
b1 _
b1 `
b100 ]
b0 T
b0 ^
b0 m
b0 n
1"
#52
0"
#53
b10 U
b10 c
b10 j
b10010 b
b10 S
b10 _
b10 `
b1 T
b1 ^
b1 m
b1 n
b101 ]
1"
#54
0"
#55
b11 U
b11 c
b11 j
b10100 b
b100 S
b100 _
b100 `
b110 ]
b10 T
b10 ^
b10 m
b10 n
1"
#56
0"
#57
b0 U
b0 c
b0 j
b11000 b
b1000 S
b1000 _
b1000 `
b11 T
b11 ^
b11 m
b11 n
b111 ]
1"
#58
0"
#59
b10 h
b1 U
b1 c
b1 j
1R
1Q
b10001 b
b1 S
b1 _
b1 `
1Z
b0 T
b0 ^
b0 m
b0 n
1"
#60
b111 U
b111 c
b111 j
0"
b1000001 b
b100 #
b100 %
b100 P
b100 a
#61
1"
#62
0"
#63
1"
#64
0"
#65
1"
#66
0"
#67
1"
#68
0"
#69
1"
#70
0"
#71
1"
#72
0"
#73
1"
#74
0"
#75
1"
#76
0"
#77
1"
#78
0"
#79
1"
#80
b1 U
b1 c
b1 j
0"
b10001 b
b1 #
b1 %
b1 P
b1 a
#81
1"
#82
0"
#83
1"
#84
0"
#85
1"
#86
0"
#87
1"
#88
0"
#89
1"
#90
0"
#91
1"
#92
0"
#93
1"
#94
0"
#95
1"
#96
0"
#97
1"
#98
0"
#99
1"
#100
b111 U
b111 c
b111 j
0"
b1000001 b
b100 #
b100 %
b100 P
b100 a
#101
1"
#102
0"
#103
1"
#104
0"
#105
1"
#106
0"
#107
1"
#108
0"
#109
1"
#110
0"
#111
1"
#112
0"
#113
1"
#114
0"
#115
1"
#116
0"
#117
1"
#118
0"
#119
1"
#120
b1 U
b1 c
b1 j
0"
b10001 b
b1 #
b1 %
b1 P
b1 a
#121
1"
#122
0"
#123
1"
#124
0"
#125
1"
#126
0"
#127
1"
#128
0"
#129
1"
#130
0"
#131
1"
#132
0"
#133
1"
#134
0"
#135
1"
#136
0"
#137
1"
#138
0"
#139
1"
#140
b111 U
b111 c
b111 j
0"
b1000001 b
b100 #
b100 %
b100 P
b100 a
#141
1"
#142
0"
#143
1"
#144
0"
#145
1"
#146
0"
#147
1"
#148
0"
#149
1"
#150
0"
#151
1"
#152
0"
#153
1"
#154
0"
#155
1"
#156
0"
#157
1"
#158
0"
#159
1"
#160
b0 U
b0 c
b0 j
0"
0X
b1 b
b0 #
b0 %
b0 P
b0 a
#161
0Y
0\
1"
#162
0"
#163
b1 h
1Y
0R
0Q
0Z
b0 ]
0[
1"
#164
0"
#165
b10 b
b10 S
b10 _
b10 `
b1 T
b1 ^
b1 m
b1 n
b1 ]
1"
#166
0"
#167
b100 b
b100 S
b100 _
b100 `
b10 ]
b10 T
b10 ^
b10 m
b10 n
1"
#168
0"
#169
b1000 b
b1000 S
b1000 _
b1000 `
b11 T
b11 ^
b11 m
b11 n
b11 ]
1"
#170
0"
#171
b1 b
b1 S
b1 _
b1 `
b100 ]
b0 T
b0 ^
b0 m
b0 n
1"
#172
0"
#173
b10 b
b10 S
b10 _
b10 `
b1 T
b1 ^
b1 m
b1 n
b101 ]
1"
#174
0"
#175
b100 b
b100 S
b100 _
b100 `
b110 ]
b10 T
b10 ^
b10 m
b10 n
1"
#176
0"
#177
b1000 b
b1000 S
b1000 _
b1000 `
b11 T
b11 ^
b11 m
b11 n
b111 ]
1"
#178
0"
#179
b1 b
b1 S
b1 _
b1 `
1Z
b0 T
b0 ^
b0 m
b0 n
1"
#180
b1 U
b1 c
b1 j
0"
1X
b10001 b
b1 #
b1 %
b1 P
b1 a
#181
b10 U
b10 c
b10 j
0Y
b10010 b
b10 S
b10 _
b10 `
b1 T
b1 ^
b1 m
b1 n
1\
1"
#182
0"
#183
1Y
b11 U
b11 c
b11 j
b10100 b
b100 S
b100 _
b100 `
0Z
b0 ]
1[
b10 T
b10 ^
b10 m
b10 n
1"
#184
0"
#185
b0 U
b0 c
b0 j
b11000 b
b1000 S
b1000 _
b1000 `
b11 T
b11 ^
b11 m
b11 n
b1 ]
1"
#186
0"
#187
b1 U
b1 c
b1 j
b10001 b
b1 S
b1 _
b1 `
b10 ]
b0 T
b0 ^
b0 m
b0 n
1"
#188
0"
#189
b10 U
b10 c
b10 j
b10010 b
b10 S
b10 _
b10 `
b1 T
b1 ^
b1 m
b1 n
b11 ]
1"
#190
0"
#191
b11 U
b11 c
b11 j
b10100 b
b100 S
b100 _
b100 `
b100 ]
b10 T
b10 ^
b10 m
b10 n
1"
#192
0"
#193
b0 U
b0 c
b0 j
b11000 b
b1000 S
b1000 _
b1000 `
b11 T
b11 ^
b11 m
b11 n
b101 ]
1"
#194
0"
#195
b1 U
b1 c
b1 j
b10001 b
b1 S
b1 _
b1 `
b110 ]
b0 T
b0 ^
b0 m
b0 n
1"
#196
0"
#197
b10 U
b10 c
b10 j
b10010 b
b10 S
b10 _
b10 `
b1 T
b1 ^
b1 m
b1 n
b111 ]
1"
#198
0"
#199
b10 h
b11 U
b11 c
b11 j
1R
1Q
b10100 b
b100 S
b100 _
b100 `
1Z
b10 T
b10 ^
b10 m
b10 n
1"
#200
b1001 U
b1001 c
b1001 j
0"
b1000100 b
b100 #
b100 %
b100 P
b100 a
#201
1"
#202
0"
#203
1"
#204
0"
#205
1"
#206
0"
#207
1"
#208
0"
#209
1"
#210
0"
#211
1"
#212
0"
#213
1"
#214
0"
#215
1"
#216
0"
#217
1"
#218
0"
#219
1"
#220
b11 U
b11 c
b11 j
0"
b10100 b
b1 #
b1 %
b1 P
b1 a
#221
1"
#222
0"
#223
1"
#224
0"
#225
1"
#226
0"
#227
1"
#228
0"
#229
1"
#230
0"
#231
1"
#232
0"
#233
1"
#234
0"
#235
1"
#236
0"
#237
1"
#238
0"
#239
1"
#240
b1001 U
b1001 c
b1001 j
0"
b1000100 b
b100 #
b100 %
b100 P
b100 a
#241
1"
#242
0"
#243
1"
#244
0"
#245
1"
#246
0"
#247
1"
#248
0"
#249
1"
#250
0"
#251
1"
#252
0"
#253
1"
#254
0"
#255
1"
#256
0"
#257
1"
#258
0"
#259
1"
#260
b11 U
b11 c
b11 j
0"
b10100 b
b1 #
b1 %
b1 P
b1 a
#261
1"
#262
0"
#263
1"
#264
0"
#265
1"
#266
0"
#267
1"
#268
0"
#269
1"
#270
0"
#271
1"
#272
0"
#273
1"
#274
0"
#275
1"
#276
0"
#277
1"
#278
0"
#279
1"
#280
b1001 U
b1001 c
b1001 j
0"
b1000100 b
b100 #
b100 %
b100 P
b100 a
